Importing and Wrangling
…
which is now a numeric:

class(avg)

## [1] "numeric"

Group then summarize with group_by

A common operation in data exploration is to first split data into groups and then compute summaries for each group. For example, we may want to compute the average and standard deviation for all regions separately. The group_by function helps us do this.

murders %>% group_by(region)

## # A tibble: 51 x 5
## # Groups:   region [4]
##    state                abb   region    population total
##    <chr>                <chr> <fct>          <dbl> <dbl>
##  1 Alabama              AL    South        4779736   135
##  2 Alaska               AK    West          710231    19
##  3 Arizona              AZ    West         6392017   232
##  4 Arkansas             AR    South        2915918    93
##  5 California           CA    West        37253956  1257
##  6 Colorado             CO    West         5029196    65
##  7 Connecticut          CT    Northeast    3574097    97
##  8 Delaware             DE    South         897934    38
##  9 District of Columbia DC    South         601723    99
## 10 Florida              FL    South       19687653   669
## # … with 41 more rows
…
This dataset contains three variables:

religion, stored in the rows,

income spread across the column names, and

count stored in the cell values.

To tidy it we use pivot_longer():

relig_income %>% 
  pivot_longer(!religion, names_to = "income", values_to = "count")

## # A tibble: 180 x 3
##    religion income             count
##    <chr>    <chr>              <dbl>
##  1 Agnostic <$10k                 27
##  2 Agnostic $10-20k               34
##  3 Agnostic $20-30k               60
##  4 Agnostic $30-40k               81
##  5 Agnostic $40-50k               76
##  6 Agnostic $50-75k              137
##  7 Agnostic $75-100k             122
##  8 Agnostic $100-150k            109
##  9 Agnostic >150k                 84
## 10 Agnostic Don't know/refused    96
## # … with 170 more rows
…
murders<-as_tibble(murders)
class(murders)

## [1] "tbl_df"     "tbl"        "data.frame"

murders

## # A tibble: 51 x 5
##    state                abb   region    population total
##    <chr>                <chr> <fct>          <dbl> <dbl>
##  1 Alabama              AL    South        4779736   135
##  2 Alaska               AK    West          710231    19
##  3 Arizona              AZ    West         6392017   232
##  4 Arkansas             AR    South        2915918    93
##  5 California           CA    West        37253956  1257
##  6 Colorado             CO    West         5029196    65
##  7 Connecticut          CT    Northeast    3574097    97
##  8 Delaware             DE    South         897934    38
##  9 District of Columbia DC    South         601723    99
## 10 Florida              FL    South       19687653   669
## # … with 41 more rows
